Tools for bayesian analysis - Exercises
…
Simulate a sample of size 10,000 of the following distributions: \(N (\mu = 5, \sigma = 3)\) and \(N(\mu = 7, \sigma = 1)\). Save the simulations in a tibble.

library(dplyr)
library(ggplot2)

# Simulate 2 sample from normal distributions
set.seed(2020)
n <- 10000

(df_sim <- tibble(
  sample_1 = rnorm(n, 5, 3), 
  sample_2 = rnorm(n, 7, 1)))

# A tibble: 10,000 x 2
   sample_1 sample_2
      <dbl>    <dbl>
 1     6.13     8.82
 2     5.90     6.58
 3     1.71     6.64
 4     1.61     7.07
 5    -3.39     6.91
 6     7.16     7.08
 7     7.82     8.56
 8     4.31     8.40
 9    10.3      8.94
10     5.35     8.99
#  with 9,990 more rows
…
